<?xml version="1.0" encoding="UTF-8"?>
<svg width="50px" height="50px" viewBox="0 0 50 50" version="1.1" xmlns="http://www.w3.org/2000/svg" xmlns:xlink="http://www.w3.org/1999/xlink">
    <title>Assets / Google Drive</title>
    <g id="Assets-/-Google-Drive" stroke="none" stroke-width="1" fill="none" fill-rule="evenodd">
        <g id="google">
            <rect id="Rectangle-5" fill="#F9B24F" x="0" y="0" width="50" height="50" rx="2"></rect>
            <g id="iconfinder_Google_Drive_381398" transform="translate(14.000000, 15.000000)" fill="#FFFFFF" fill-rule="nonzero">
                <polygon id="Yellow_x5F_Part" points="9 0 15.65 0 23 13 16.35 13"></polygon>
                <polygon id="Green_x5F_Part" points="3.66666667 20 0 14.1538462 7.7 1 11 6.84615385"></polygon>
                <polygon id="Blue_x5F_Part" points="19.8235294 20 23 14 8.17647059 14 5 20"></polygon>
            </g>
        </g>
    </g>
</svg>