<?xml version="1.0" encoding="UTF-8" standalone="no"?>
<svg width="50px" height="50px" viewBox="0 0 50 50" version="1.1" xmlns="http://www.w3.org/2000/svg" xmlns:xlink="http://www.w3.org/1999/xlink">
    <!-- Generator: Sketch 50 (54983) - http://www.bohemiancoding.com/sketch -->
    <title>netflix</title>
    <desc>Created with Sketch.</desc>
    <defs></defs>
    <g id="Page-1" stroke="none" stroke-width="1" fill="none" fill-rule="evenodd">
        <g id="Artboard-2" transform="translate(-90.000000, -86.000000)">
            <g id="netflix" transform="translate(90.000000, 86.000000)">
                <rect id="Rectangle-5" fill="#EB3737" x="0" y="0" width="50" height="50" rx="2"></rect>
                <polygon id="Shape" fill="#FFFFFF" fill-rule="nonzero" points="26.9999419 17 26.9999419 25.0000696 23.9997791 17 21 17 21 33 23.9997791 33 23.9997791 24.9995826 26.9999419 33 30 33 30 17"></polygon>
            </g>
        </g>
    </g>
</svg>